{
  "project_info": {
    "project_number": "1029059485003",
    "firebase_url": "https://schedule-diolk49.firebaseio.com",
    "project_id": "schedule-diolk49",
    "storage_bucket": "schedule-diolk49.appspot.com"
  },
  "client": [
    {
      "client_info": {
        "mobilesdk_app_id": "1:1029059485003:android:22d1e2d0c92db2a146dcce",
        "android_client_info": {
          "package_name": "com.diolk49.schedule"
        }
      },
      "oauth_client": [
        {
          "client_id": "1029059485003-f3ulpakrgnvg92dovdqbm635ncb44nda.apps.googleusercontent.com",
          "client_type": 1,
          "android_info": {
            "package_name": "com.diolk49.schedule",
            "certificate_hash": "368176b752c17e20595bcfcb85cfdeb784e2a0ca"
          }
        },
        {
          "client_id": "1029059485003-61r7hgmh4j5vioagche2is809j9dti3k.apps.googleusercontent.com",
          "client_type": 3
        }
      ],
      "api_key": [
        {
          "current_key": "AIzaSyAiy2R_0TyB5YmRoMIbhCfGUgHKzR5DJC4"
        }
      ],
      "services": {
        "appinvite_service": {
          "other_platform_oauth_client": [
            {
              "client_id": "1029059485003-61r7hgmh4j5vioagche2is809j9dti3k.apps.googleusercontent.com",
              "client_type": 3
            }
          ]
        }
      }
    }
  ],
  "configuration_version": "1"
}